<svg width="240" height="50" viewBox="0 0 240 50" fill="none" xmlns="http://www.w3.org/2000/svg">
<path d="M11.5578 0H0V11.5578H11.5578V0Z" transform="translate(25.5083 8.05847) scale(1.01388 0.985906) rotate(-45.0079)" fill="#78B537"/>
<path d="M21.7465 31.3362C15.9437 31.3362 11.2676 26.7891 11.2676 21.1464C11.2676 15.5037 15.9437 10.9567 21.7465 10.9567C27.5493 10.9567 32.2254 15.5037 32.2254 21.1464C32.2254 26.7891 27.493 31.3362 21.7465 31.3362ZM21.7465 8.3593e-07C9.74648 8.3593e-07 1.7193e-06 9.47755 1.7193e-06 21.1464C1.7193e-06 32.8153 9.74648 42.2929 21.7465 42.2929C33.7465 42.2929 43.493 32.8153 43.493 21.1464C43.493 9.47755 33.7465 8.3593e-07 21.7465 8.3593e-07Z" transform="translate(36 6.71985)" fill="#E3000F"/>
<path d="M36.1128 1.67187e-06H24.7325V24.2692C24.7325 27.8849 22.817 30.9528 18.4789 30.9528C14.4789 30.9528 12.1127 27.8301 12.1127 24.7622V1.67187e-06H0.845069C0.394364 1.67187e-06 -3.43861e-06 0.383488 -3.43861e-06 0.821758V23.6118C-3.43861e-06 33.8016 7.49298 41.0878 18.4789 41.0878C30.986 41.0878 36.9578 32.4868 36.9578 23.5022V0.821758C36.9578 0.383488 36.5635 1.67187e-06 36.1128 1.67187e-06Z" transform="translate(157.748 8.03015)" fill="#E3000F"/>
<path d="M31.493 3.45136C31.6057 3.17744 31.7747 2.79396 31.7747 2.30091C31.7747 1.91742 31.7747 1.67186e-06 31.7747 1.67186e-06H0.845071C0.394366 1.67186e-06 0 0.383486 0 0.821754V9.80625H14.4789L0.450698 36.8145C0.39436 36.8693 0.338028 37.0337 0.28169 37.198C0.169014 37.4719 0.0563415 37.8006 0.0563415 38.2389C0.0563415 38.6224 0.0563415 40.5946 0.0563415 40.5946H31.831V31.5553C31.831 31.117 31.4366 30.7336 30.9859 30.7336H17.0704C16.9578 30.6788 31.4366 3.61571 31.493 3.45136Z" transform="translate(122.592 8.03015)" fill="#E3000F"/>
<path d="M38.9296 1.67186e-06C37.3521 1.67186e-06 36.7887 0.3287 36.2817 0.712185C36.2817 0.712185 36.2817 0.712185 36.2254 0.712185L20.2254 16.1064L4.22534 0.712185C4.22534 0.712185 4.22535 0.712185 4.16902 0.712185C3.66197 0.3287 3.04225 1.67186e-06 1.52112 1.67186e-06H-1.37544e-05V40.5946H11.0423V21.0369L20.3944 30.5144L29.4648 21.4204L29.5211 40.5946H40.4507V1.67186e-06H38.9296Z" transform="translate(199.549 8.03015)" fill="#E3000F"/>
<path d="M33.9719 1.67186e-06H22.9859V17.5308L4.16901 0.712186C3.66197 0.328701 3.04226 0.0547844 1.52113 0.0547844H-3.4386e-06V40.5946H11.493V22.6256L31.3803 40.6494H34.8169V0.876538C34.8169 0.383486 34.4226 1.67186e-06 33.9719 1.67186e-06Z" transform="translate(82.8164 8.03015)" fill="#E3000F"/>
<path d="M31.8874 9.97063L23.6057 1.91743L11.5493 12.8194V1.67186e-06H0.845068C0.394363 1.67186e-06 -3.4386e-06 0.383487 -3.4386e-06 0.821757V40.7043H11.6056V27.8301L24.8451 40.5947H40.3381L20.5634 21.3108L31.8874 9.97063Z" transform="translate(0 8.03015)" fill="#E3000F"/>
</svg>
