<svg xmlns="http://www.w3.org/2000/svg" width="252" height="355" viewBox="0 0 252 355">
    <defs>
        <linearGradient id="a" x1="0%" y1="96.599%" y2="0%">
            <stop offset="0%" stop-color="#E1700E"/>
            <stop offset="100%" stop-color="#C51659"/>
            <stop offset="100%" stop-color="#C30E60"/>
        </linearGradient>
    </defs>
    <path fill="url(#a)" fill-rule="evenodd" d="M53.096 29.084S55.124 29 56.269 29h.316c.977 0 2.722.084 2.722.084 20.293.84 33.503 7.819 41.237 13.799 16.226 12.568 24.423 32.315 30.992 48.173l.672 1.65 31.601 77.231a401.379 401.379 0 0 1-8.933 4.656c-8.029 4.067-15.816 7.682-24.276 11.539l-30.865-75.466-2.228-5.465c-4.929-11.854-11.034-26.588-19.536-33.166-2.932-2.28-9.574-5.938-21.87-6.18-12.106.274-18.748 3.91-21.67 6.18-8.49 6.578-14.607 21.312-19.515 33.145l-.525 1.293-98.492 240.742h79.533c4.078 11.045 10.972 20.808 20.535 28.848 3.437 2.89 7.251 5.549 11.381 8.018H-139L-19.133 91.046c6.578-15.848 14.765-35.595 30.991-48.153 7.745-5.99 21.029-12.958 41.238-13.809zm112.426 366.883h-47.673c-43.127-2.475-75.063-12.229-95.125-29.11C6.614 353.29-1.993 334.899-2.15 313.66c-.189-25.695 11.54-47.228 35.889-65.84 19.505-14.923 44.78-26.62 74.026-40.176 44.979-20.829 70.054-31.044 122.315-68.172l13.452 32.788c-41.112 30.508-83.064 51.694-120.245 68.919-56.665 26.24-88.718 42.53-88.497 72.208.084 10.53 3.815 18.527 11.728 25.2 16.541 13.925 51.127 21.418 97.377 21.06 18.402-.126 43.024-3.037 55.614-4.36l-41.532-102.118c10.762-5.286 22.112-10.193 33.157-16.415l60.532 147.737-32.273 6.074c-1.15.198-23.726 3.895-53.87 5.402z" transform="translate(0 -29)"/>
</svg>
