<svg xmlns="http://www.w3.org/2000/svg" width="9" height="18" viewBox="0 0 9 18">
    <path fill="#000" fill-rule="evenodd" d="M5.623 18H2.25V9H0V5.898h2.25L2.246 4.07c0-2.53.687-4.07 3.667-4.07h2.482v3.103H6.844c-1.161 0-1.217.433-1.217 1.242l-.004 1.552h2.789L8.082 9 5.626 9l-.002 9z"/>
</svg>
