<svg xmlns="http://www.w3.org/2000/svg" width="24" height="16" viewBox="0 0 24 16">
    <path fill="#000" fill-rule="evenodd" d="M19.13 4.483h2.108c.003.706.007 1.415.014 2.12.705.007 1.414.007 2.12.014v2.109c-.706.007-1.411.01-2.12.017-.007.71-.01 1.414-.014 2.12h-2.112c-.008-.706-.008-1.41-.014-2.116l-2.12-.021v-2.11c.705-.006 1.41-.01 2.12-.013.003-.71.01-1.414.017-2.12zM.02 7.304C.083 3.48 3.599.131 7.423.26 9.255.174 10.978.97 12.381 2.09c-.598.68-1.219 1.336-1.882 1.95-1.686-1.167-4.086-1.5-5.773-.153-2.413 1.669-2.523 5.61-.202 7.407 2.258 2.048 6.525 1.031 7.148-2.105-1.414-.021-2.831 0-4.245-.046-.004-.844-.007-1.687-.004-2.53 2.364-.008 4.728-.011 7.095.006.142 1.985-.12 4.097-1.34 5.738-1.846 2.598-5.553 3.357-8.445 2.243C1.831 13.496-.225 10.431.02 7.304z"/>
</svg>
