<svg xmlns="http://www.w3.org/2000/svg" width="24" height="16" viewBox="0 0 24 16">
    <defs>
        <linearGradient id="a" x1="100%" x2="0%" y1="0%" y2="100%">
            <stop offset="0%" stop-color="#C40F61"/>
            <stop offset="100%" stop-color="#E27210"/>
        </linearGradient>
    </defs>
    <path fill="url(#a)" fill-rule="evenodd" d="M26.13 15.483h2.108c.003.706.007 1.415.014 2.12.705.007 1.414.007 2.12.014v2.109c-.706.007-1.411.01-2.12.017-.007.71-.01 1.414-.014 2.12h-2.112c-.008-.706-.008-1.41-.014-2.116l-2.12-.021v-2.11c.705-.006 1.41-.01 2.12-.013.003-.71.01-1.414.017-2.12zM7.02 18.304c.063-3.824 3.579-7.173 7.403-7.045 1.832-.085 3.555.712 4.958 1.832-.598.68-1.219 1.336-1.882 1.95-1.686-1.167-4.086-1.5-5.773-.153-2.413 1.669-2.523 5.61-.202 7.407 2.258 2.048 6.525 1.031 7.148-2.105-1.414-.021-2.831 0-4.245-.046-.004-.844-.007-1.687-.004-2.53 2.364-.008 4.728-.011 7.095.006.142 1.985-.12 4.097-1.34 5.738-1.846 2.598-5.553 3.357-8.445 2.243-2.902-1.105-4.958-4.17-4.713-7.297z" transform="translate(-7 -11)"/>
</svg>
